[
	{
		"name": "active",
		"type": "checkbox",
		"label": "ACTIVE"
	}, {
		"name": "featured_image",
		"type": "file",
		"label": "FEATURED IMAGE"
	},{
		"name": "name",
		"type": "text-single",
		"label": "NAME"
	}, {
		"name": "url",
		"type": "text-single",
		"label": "URL"
	}
]
