[
	 {
		"name": "active",
		"type": "checkbox",
		"label": "ACTIVE"
	},{
		"name": "featured_image",
		"type": "file",
		"label": "FEATURED IMAGE"
	},{
		"name": "username",
		"type": "text-single",
		"label": "USERNAME"
	},  {
		"name": "email",
		"type": "text-single",
		"label": "EMAIL ADDRESS"
	}, {
		"name": "password",
		"type": "text-single",
		"label": "PASSWORD"
	}, {
		"name": "address",
		"type": "text-single",
		"label": "ADDRESS"
	}, {
		"name": "city",
		"type": "text-single",
		"label": "CITY"
	}, {
		"name": "state",
		"type": "text-single",
		"label": "STATE"
	}, {
		"name": "zip",
		"type": "text-single",
		"label": "ZIP"
	}, {
		"name": "phone",
		"type": "text-single",
		"label": "PHONE"
	}, {
		"name": "phone_carrier_service",
		"type": "multi-select",
		"dataName" : "phone_carrier_service",
		"label": "PHONE CARRIER SERVICE"
	}, {
		"name": "notes",
		"type": "text-multi",
		"label": "NOTES"
	}
]
